{
  "description": "PodTemplate describes a template for creating copies of a predefined pod.",
  "properties": {
    "apiVersion": {
      "description": "APIVersion defines the versioned schema of this representation of an object. Servers should convert recognized schemas to the latest internal value, and may reject unrecognized values. More info: https://git.k8s.io/community/contributors/devel/sig-architecture/api-conventions.md#resources",
      "type": [
        "string",
        "null"
      ]
    },
    "kind": {
      "description": "Kind is a string value representing the REST resource this object represents. Servers may infer this from the endpoint the client submits requests to. Cannot be updated. In CamelCase. More info: https://git.k8s.io/community/contributors/devel/sig-architecture/api-conventions.md#types-kinds",
      "type": [
        "string",
        "null"
      ],
      "enum": [
        "PodTemplate"
      ]
    },
    "metadata": {
      "$ref": "https://kubernetesjsonschema.dev/v1.16.15/_definitions.json#/definitions/io.k8s.apimachinery.pkg.apis.meta.v1.ObjectMeta",
      "description": "Standard object's metadata. More info: https://git.k8s.io/community/contributors/devel/sig-architecture/api-conventions.md#metadata"
    },
    "template": {
      "$ref": "https://kubernetesjsonschema.dev/v1.16.15/_definitions.json#/definitions/io.k8s.api.core.v1.PodTemplateSpec",
      "description": "Template defines the pods that will be created from this pod template. https://git.k8s.io/community/contributors/devel/sig-architecture/api-conventions.md#spec-and-status"
    }
  },
  "type": "object",
  "x-kubernetes-group-version-kind": [
    {
      "group": "",
      "kind": "PodTemplate",
      "version": "v1"
    }
  ],
  "$schema": "http://json-schema.org/schema#"
}