{
  "properties": {
    "apiVersion": {
      "description": "APIVersion defines the versioned schema of this representation of an object. Servers should convert recognized schemas to the latest internal value, and may reject unrecognized values. More info: https://git.k8s.io/community/contributors/devel/sig-architecture/api-conventions.md#resources",
      "type": [
        "string",
        "null"
      ]
    },
    "items": {
      "items": {
        "$ref": "https://kubernetesjsonschema.dev/v1.17.13/_definitions.json#/definitions/io.k8s.api.certificates.v1beta1.CertificateSigningRequest"
      },
      "type": [
        "array",
        "null"
      ]
    },
    "kind": {
      "description": "Kind is a string value representing the REST resource this object represents. Servers may infer this from the endpoint the client submits requests to. Cannot be updated. In CamelCase. More info: https://git.k8s.io/community/contributors/devel/sig-architecture/api-conventions.md#types-kinds",
      "type": [
        "string",
        "null"
      ],
      "enum": [
        "CertificateSigningRequestList"
      ]
    },
    "metadata": {
      "$ref": "https://kubernetesjsonschema.dev/v1.17.13/_definitions.json#/definitions/io.k8s.apimachinery.pkg.apis.meta.v1.ListMeta"
    }
  },
  "required": [
    "items"
  ],
  "type": "object",
  "x-kubernetes-group-version-kind": [
    {
      "group": "certificates.k8s.io",
      "kind": "CertificateSigningRequestList",
      "version": "v1beta1"
    }
  ],
  "$schema": "http://json-schema.org/schema#"
}